[{"name":"ACM Conference on Applications, Technologies, Architectures, and Protocols for Computer Communication","acronym":"SIGCOMM","rank":"A*"},
{"name":"ACM Conference on Computer and Communications Security","acronym":"CCS","rank":"A*"},
{"name":"ACM Conference on Computer Supported Cooperative Work","acronym":"CSCW","rank":"A"},
{"name":"ACM Conference on Economics and Computation","acronym":"EC","rank":"A*"},
{"name":"ACM Conference on Embedded Networked Sensor Systems","acronym":"SENSYS","rank":"A*"},
{"name":"ACM Conference on Embedded Software","acronym":"EMSOFT","rank":"A"},
{"name":"ACM Conference on Object Oriented Programming Systems Languages and Applications","acronym":"OOPSLA","rank":"A*"},
{"name":"ACM International Conference on Emerging Networking Experiments and Technologies","acronym":"CoNEXT","rank":"A"},
{"name":"ACM International Conference on Information and Knowledge Management","acronym":"CIKM","rank":"A"},
{"name":"ACM International Conference on Interactive Surfaces and Spaces (was International Workshop on Horizontal Interactive Human-Computer Systems: Tabletop)","acronym":"ISS","rank":"A"},
{"name":"ACM International Conference on Knowledge Discovery and Data Mining","acronym":"KDD","rank":"A*"},
{"name":"ACM International Conference on Mobile Computing and Networking","acronym":"MOBICOM","rank":"A*"},
{"name":"ACM International Conference on Research and Development in Information Retrieval","acronym":"SIGIR","rank":"A*"},
{"name":"ACM International Conference on Supercomputing","acronym":"ICS","rank":"A"},
{"name":"ACM International Conference on Web Search and Data Mining","acronym":"WSDM","rank":"A*"},
{"name":"ACM International Symposium on Computer Architecture","acronym":"ISCA","rank":"A*"},
{"name":"ACM International Symposium on High Performance Distributed Computing","acronym":"HPDC","rank":"A"},
{"name":"ACM Multimedia","acronym":"ACMMM","rank":"A*"},
{"name":"ACM SIG International Conference on Computer Graphics and Interactive Techniques","acronym":"SIGGRAPH","rank":"A*"},
{"name":"ACM SIGMOD-SIGACT-SIGART Conference on Principles of Database Systems","acronym":"PODS","rank":"A*"},
{"name":"ACM SIGOPS Symposium on Operating Systems Principles","acronym":"SOSP","rank":"A*"},
{"name":"ACM SIGPLAN Conference on Languages, Tools, and Compilers for Embedded Systems","acronym":"LCTES","rank":"A"},
{"name":"ACM Special Interest Group on Computer Science Education Conference","acronym":"SIGCSE","rank":"A"},
{"name":"ACM Special Interest Group on Management of Data Conference","acronym":"SIGMOD","rank":"A*"},
{"name":"ACM Symposium on Mobile Ad Hoc Networking and Computing","acronym":"MOBIHOC","rank":"A"},
{"name":"ACM Symposium on Principles of Distributed Computing","acronym":"PODC","rank":"A*"},
{"name":"ACM Symposium on Theory of Computing","acronym":"STOC","rank":"A*"},
{"name":"ACM Symposium on User Interface Software and Technology","acronym":"UIST","rank":"A"},
{"name":"ACM Virtual Reality Software and Technology","acronym":"VRST","rank":"A"},
{"name":"ACM-SIGACT Symposium on Principles of Programming Languages","acronym":"POPL","rank":"A*"},
{"name":"ACM-SIGPLAN Conference on Programming Language Design and Implementation","acronym":"PLDI","rank":"A*"},
{"name":"ACM/IEEE International Conference on Modelling, Analysis and Simulation of Wireless and Mobile Systems","acronym":"MSWIM","rank":"A"},
{"name":"ACM/IFIP/USENIX International Middleware Conference","acronym":"Middleware","rank":"A"},
{"name":"ACM/SIAM Symposium on Discrete Algorithms","acronym":"SODA","rank":"A*"},
{"name":"Advances in Cryptology","acronym":"CRYPTO","rank":"A*"},
{"name":"Advances in Modal Logic","acronym":"AiML","rank":"A"},
{"name":"Advances in Neural Information Processing Systems (was NIPS)","acronym":"NeurIPS","rank":"A*"},
{"name":"Annual Conference of the Cognitive Science Society","acronym":"CogSci","rank":"A"},
{"name":"Annual Conference on Innovation and Technology in Computer Science Education","acronym":"ITiCSE","rank":"A"},
{"name":"Architectural Support for Programming Languages and Operating Systems","acronym":"ASPLOS","rank":"A*"},
{"name":"Association of Computational Linguistics","acronym":"ACL","rank":"A*"},
{"name":"Automated Software Engineering Conference","acronym":"ASE","rank":"A"},
{"name":"Computer Aided Verification","acronym":"CAV","rank":"A*"},
{"name":"Computer Supported Collaborative Learning","acronym":"CSCL","rank":"A"},
{"name":"Conference in Uncertainty in Artificial Intelligence","acronym":"UAI","rank":"A*"},
{"name":"Conference on Computational Natural Language Learning","acronym":"CoNLL","rank":"A"},
{"name":"Conference on File and Storage Technologies","acronym":"FAST","rank":"A"},
{"name":"Conference on Innovative Data Systems Research","acronym":"CIDR","rank":"A"},
{"name":"Conference on Integer Programming and Combinatorial Optimization","acronym":"IPCO","rank":"A"},
{"name":"Conference on Interactive Theorem Proving (previously TPHOLs, changed in 2009)","acronym":"ITP","rank":"A"},
{"name":"Conference on Learning Theory","acronym":"COLT","rank":"A*"},
{"name":"Data Compression Conference","acronym":"DCC","rank":"A*"},
{"name":"Empirical Methods in Natural Language Processing","acronym":"EMNLP","rank":"A"},
{"name":"Euromicro Conference on Real-Time Systems","acronym":"ECRTS","rank":"A"},
{"name":"European Association of Computational Linguistics","acronym":"EACL","rank":"A"},
{"name":"European Conference on Artificial Intelligence","acronym":"ECAI","rank":"A"},
{"name":"European Conference on Computer Vision","acronym":"ECCV","rank":"A"},
{"name":"European Conference on Information Retrieval","acronym":"ECIR","rank":"A"},
{"name":"European Conference on Machine Learning and Principles and Practice of Knowledge Discovery in Database (PKDD and ECML combined from 2008)","acronym":"ECML PKDD","rank":"A"},
{"name":"European Conference on Object-Oriented Programming","acronym":"ECOOP","rank":"A"},
{"name":"European Conference on Software Architecture","acronym":"ECSA","rank":"A"},
{"name":"European Software Engineering Conference and the ACM SIGSOFT Symposium on the Foundations of Software Engineering (duplicate was listed as ESEC, removed from DB)","acronym":"ESEC/FSE","rank":"A*"},
{"name":"European Symposium on Algorithms","acronym":"ESA","rank":"A"},
{"name":"European Symposium on Programming","acronym":"ESOP","rank":"A"},
{"name":"European Symposium On Research In Computer Security","acronym":"ESORICS","rank":"A"},
{"name":"Eurosys Conference","acronym":"EuroSys","rank":"A"},
{"name":"Extended Semantic Web Conference (was European Semantic Web Conference)","acronym":"ESWC","rank":"A"},
{"name":"Extending Database Technology","acronym":"EDBT","rank":"A"},
{"name":"Foundations of Genetic Algorithms","acronym":"FOGA","rank":"A*"},
{"name":"Foundations of Software Science and Computational Structures","acronym":"FOSSACS","rank":"A"},
{"name":"Genetic and Evolutionary Computations","acronym":"GECCO","rank":"A"},
{"name":"Graph Drawing","acronym":"GD","rank":"A"},
{"name":"IEEE Computer Security Foundations Symposium (was CSFW)","acronym":"CSF","rank":"A"},
{"name":"IEEE Conference on Computational Complexity","acronym":"CCC","rank":"A"},
{"name":"IEEE Conference on Computer Vision and Pattern Recognition","acronym":"CVPR","rank":"A*"},
{"name":"IEEE Conference on Local Computer Networks","acronym":"LCN","rank":"A"},
{"name":"IEEE Conference on Virtual Reality and 3D User Interfaces","acronym":"VR","rank":"A"},
{"name":"IEEE Information Visualization Conference","acronym":"IEEE InfoVis","rank":"A*"},
{"name":"IEEE International Conference on Cluster Computing","acronym":"CLUSTER","rank":"A"},
{"name":"IEEE International Conference on Computer Communications","acronym":"INFOCOM","rank":"A*"},
{"name":"IEEE International Conference on Computer Vision","acronym":"ICCV","rank":"A*"},
{"name":"IEEE International Conference on Data Mining","acronym":"ICDM","rank":"A*"},
{"name":"IEEE International Conference on Document Analysis and Recognition","acronym":"ICDAR","rank":"A"},
{"name":"IEEE International Conference on e-Science and Grid Computing","acronym":"e-Science","rank":"A"},
{"name":"IEEE International Conference on Engineering of Complex Computer Systems","acronym":"ICECCS","rank":"A"},
{"name":"IEEE International Conference on Fuzzy Systems","acronym":"FUZZ-IEEE","rank":"A"},
{"name":"IEEE International Conference on Pervasive Computing and Communications","acronym":"PERCOM","rank":"A*"},
{"name":"IEEE International Conference on Services Computing","acronym":"SCC","rank":"A"},
{"name":"IEEE International Conference on Software Maintenance and Evolution (prior to 2014 was ICSM, IEEE International Conference on Software Maintenance)","acronym":"ICSME","rank":"A"},
{"name":"IEEE International Conference on Web Services","acronym":"ICWS","rank":"A"},
{"name":"IEEE International Joint Conference on Neural Networks","acronym":"IJCNN","rank":"A"},
{"name":"IEEE International Parallel and Distributed Processing Symposium (was IPPS and SPDP)","acronym":"IPDPS","rank":"A"},
{"name":"IEEE International Requirements Engineering Conference","acronym":"RE","rank":"A"},
{"name":"IEEE International Symposium on a World of Wireless, Mobile and Multimedia Networks","acronym":"WoWMoM","rank":"A"},
{"name":"IEEE International Symposium on Artificial Life","acronym":"IEEE Alife","rank":"A"},
{"name":"IEEE International Symposium on Cluster, Cloud and Grid Computing","acronym":"CCGRID","rank":"A"},
{"name":"IEEE International Symposium on Network Computing and Applications","acronym":"NCA","rank":"A"},
{"name":"IEEE International Symposium on Wearable Computers","acronym":"ISWC","rank":"A*"},
{"name":"IEEE International Working Conference on Mining Software Repositories","acronym":"MSR","rank":"A"},
{"name":"IEEE Real-Time and Embedded Technology and Applications Symposium","acronym":"RTAS","rank":"A"},
{"name":"IEEE Symposium on Field Programmable Custom Computing Machines","acronym":"FCCM","rank":"A"},
{"name":"IEEE Symposium on Foundations of Computer Science","acronym":"FOCS","rank":"A*"},
{"name":"IEEE Symposium on Logic in Computer Science","acronym":"LICS","rank":"A*"},
{"name":"IEEE Symposium on Security and Privacy","acronym":"SP","rank":"A*"},
{"name":"IEEE Visualization","acronym":"IEEE VIS","rank":"A"},
{"name":"IEEE Workshop on Applications of Computer Vision","acronym":"WACV","rank":"A"},
{"name":"IEEE/ACM International Conference on Computer-Aided Design","acronym":"ICCAD","rank":"A"},
{"name":"IEEE/ACM International Symposium on Mixed and Augmented Reality","acronym":"ISMAR","rank":"A*"},
{"name":"IEEE/IFIP International Conference on Dependable Systems and Networks","acronym":"DSN","rank":"A"},
{"name":"IEEE/RSJ International Conference on Intelligent Robots and Systems","acronym":"IROS","rank":"A"},
{"name":"IFIP International Conference on Networking","acronym":"Networking","rank":"A"},
{"name":"IFIP International Symposium on Computing Performance, Modelling, Measurement and Evaluation ","acronym":"PERFORMANCE ","rank":"A"},
{"name":"IFIP TC13 Conference on Human-Computer Interaction","acronym":"Interact","rank":"A"},
{"name":"Information Processing in Sensor Networks","acronym":"IPSN","rank":"A*"},
{"name":"Innovations in Theoretical Computer Science","acronym":"ITCS","rank":"A"},
{"name":"Intelligent Data Analysis","acronym":"IDA","rank":"A"},
{"name":"Intelligent Systems in Molecular Biology","acronym":"ISMB","rank":"A"},
{"name":"International Colloquium on Automata Languages and Programming","acronym":"ICALP","rank":"A"},
{"name":"International Conference for High Performance Computing, Networking, Storage and Analysis (was Supercomputing Conference)","acronym":"SC","rank":"A"},
{"name":"International Conference in Business Process Management","acronym":"BPM","rank":"A"},
{"name":"International Conference on Advanced Information Systems Engineering","acronym":"CaiSE","rank":"A"},
{"name":"International Conference on Artificial Intelligence and Statistics","acronym":"AISTATS","rank":"A"},
{"name":"International Conference on Artificial Intelligence in Education","acronym":"AIED","rank":"A"},
{"name":"International Conference on Automated Deduction","acronym":"CADE","rank":"A"},
{"name":"International Conference on Automated Planning and Scheduling","acronym":"ICAPS","rank":"A*"},
{"name":"International Conference on Compiler Construction","acronym":"CC","rank":"A"},
{"name":"International Conference on Compilers, Architecture, and Synthesis for Embedded Systems","acronym":"CASES","rank":"A"},
{"name":"International Conference on Computational Linguistics","acronym":"COLING","rank":"A"},
{"name":"International Conference on Computational Science","acronym":"ICCS","rank":"A"},
{"name":"International Conference on Computer Communication and Networks","acronym":"ICCCN","rank":"A"},
{"name":"International Conference on Conceptual Modelling","acronym":"ER","rank":"A"},
{"name":"International Conference on Concurrency Theory","acronym":"CONCUR","rank":"A"},
{"name":"International Conference on Control, Automation, Robotics and Vision","acronym":"ICARCV","rank":"A"},
{"name":"International Conference on Cooperative Information Systems","acronym":"CoopIS","rank":"A"},
{"name":"International Conference on Data Engineering","acronym":"ICDE","rank":"A*"},
{"name":"International Conference on Database Theory","acronym":"ICDT","rank":"A"},
{"name":"International Conference on Distributed Computing Systems","acronym":"ICDCS","rank":"A"},
{"name":"International Conference on Embedded Wireless Systems and Networks (wasEuropean Conference on Wireless Sensor Networks)","acronym":"EWSN","rank":"A"},
{"name":"International Conference on Evaluation and Assessment in Software Engineering","acronym":"EASE","rank":"A"},
{"name":"International Conference on Formal Ontology in Information Systems","acronym":"FOIS","rank":"A"},
{"name":"International Conference on Functional Programming","acronym":"ICFP","rank":"A*"},
{"name":"International Conference on Human Factors in Computing Systems","acronym":"CHI","rank":"A*"},
{"name":"International Conference on Intelligent Tutoring Systems","acronym":"ITS","rank":"A"},
{"name":"International Conference on Intelligent User Interfaces","acronym":"IUI","rank":"A"},
{"name":"International Conference on Logic Programming","acronym":"ICLP","rank":"A"},
{"name":"International Conference on Logic Programming and Non-monotonic Reasoning","acronym":"LPNMR","rank":"A"},
{"name":"International Conference on Machine Learning","acronym":"ICML","rank":"A*"},
{"name":"International Conference on Mobile and Ubiquitous Systems: Networks and Services","acronym":"Mobiquitous","rank":"A"},
{"name":"International Conference on Model Driven Engineering Languages and Systems (Previously UML, changed in 2005)","acronym":"MODELS","rank":"A"},
{"name":"International Conference on Network Protocols","acronym":"ICNP","rank":"A"},
{"name":"International Conference on Neural Information Processing","acronym":"ICONIP","rank":"A"},
{"name":"International Conference on Parallel Architecture and Compilation Techniques","acronym":"PACT","rank":"A"},
{"name":"International Conference on Parallel Processing","acronym":"ICPP","rank":"A"},
{"name":"International Conference on Principles and Practice of Constraint Programming","acronym":"CP","rank":"A"},
{"name":"International Conference on Scientific and Statistical Data Base Management","acronym":"SSDBM","rank":"A"},
{"name":"International Conference on Service Oriented Computing","acronym":"ICSOC","rank":"A"},
{"name":"International Conference on Software and System Processes (was ICSP prior to 2011)","acronym":"ICSSP","rank":"A"},
{"name":"International Conference on Software Engineering","acronym":"ICSE","rank":"A*"},
{"name":"International Conference on Software Testing, Verification and Validation","acronym":"ICST","rank":"A"},
{"name":"International Conference on the Principles of Knowledge Representation and Reasoning","acronym":"KR","rank":"A*"},
{"name":"International Conference on the Simulation and Synthesis of Living Systems","acronym":"ALIFE","rank":"A"},
{"name":"International Conference on the Theory and Application of Cryptographic Techniques","acronym":"EuroCrypt","rank":"A*"},
{"name":"International Conference on the Theory and Application of Cryptology and Information Security","acronym":"ASIACRYPT","rank":"A"},
{"name":"International Conference on Theorem Proving with Analytic Tableaux and Related Methods","acronym":"TABLEAUX","rank":"A"},
{"name":"International Conference on Theory and Applications of Satisfiability Testing","acronym":"SAT","rank":"A"},
{"name":"International Conference on Trust, Security and Privacy in Computing and Communications","acronym":"TrustCom","rank":"A"},
{"name":"International Conference on Very Large Databases","acronym":"VLDB","rank":"A*"},
{"name":"International Conference on Virtual Execution Environments","acronym":"VEE","rank":"A"},
{"name":"International Conference on Web Information Systems Engineering","acronym":"WISE","rank":"A"},
{"name":"International European Conference on Parallel and Distributed Computing (was International Conference on Parallel Processing)","acronym":"EuroPar","rank":"A"},
{"name":"International Joint Conference on Artificial Intelligence","acronym":"IJCAI","rank":"A*"},
{"name":"International Joint Conference on Automated Reasoning","acronym":"IJCAR","rank":"A*"},
{"name":"International Joint Conference on Autonomous Agents and Multiagent Systems (previously the International Conference on Multiagent Systems, ICMAS, changed in 2000)","acronym":"AAMAS","rank":"A*"},
{"name":"International Semantic Web Conference","acronym":"ISWC","rank":"A"},
{"name":"International Symposium on Algorithms and Computation","acronym":"ISAAC","rank":"A"},
{"name":"International Symposium on Automated Technology for Verification and Analysis","acronym":"ATVA","rank":"A"},
{"name":"International Symposium on Code Generation and Optimization","acronym":"CGO","rank":"A"},
{"name":"International Symposium on Computational Geometry","acronym":"SoCG","rank":"A"},
{"name":"International Symposium on Distributed Computing (was WDAG)","acronym":"DISC","rank":"A"},
{"name":"International Symposium on Empirical Software Engineering and Measurement","acronym":"ESEM","rank":"A"},
{"name":"International Symposium on Formal Methods (was Formal Methods Europe FME)","acronym":"FM","rank":"A"},
{"name":"International Symposium on Fundamentals of Computation Theory","acronym":"FCT","rank":"A"},
{"name":"International Symposium on High Performance Computer Architecture","acronym":"HPCA","rank":"A*"},
{"name":"International Symposium on Mathematical Foundations of Computer Science","acronym":"MFCS","rank":"A"},
{"name":"International Symposium on Memory Management","acronym":"ISMM","rank":"A"},
{"name":"International Symposium on Robotics Research","acronym":"ISRR","rank":"A"},
{"name":"International Symposium on Software Reliability Engineering","acronym":"ISSRE","rank":"A"},
{"name":"International Symposium on Software Testing and Analysis","acronym":"ISSTA","rank":"A"},
{"name":"International Symposium on Spatial and Temporal Databases","acronym":"SSTD","rank":"A"},
{"name":"International Symposium on Symbolic and Algebraic Computation","acronym":"ISSAC","rank":"A*"},
{"name":"International Symposium on Theoretical Aspects of Computer Science","acronym":"STACS","rank":"A"},
{"name":"International Workshop on Approximation Algorithms for Combinatorial Optimization Problems","acronym":"APPROX","rank":"A"},
{"name":"International Workshop on Graph-Theoretic Concepts in Computer Science","acronym":"WG","rank":"A"},
{"name":"International Workshop on Randomization and Computation","acronym":"RANDOM","rank":"A"},
{"name":"International Workshop on Software and Compilers for Embedded Systems","acronym":"SCOPES","rank":"A"},
{"name":"International World Wide Web Conference","acronym":"WWW","rank":"A*"},
{"name":"Internet Measurement Conference","acronym":"IMC","rank":"A"},
{"name":"Interspeech (combined EuroSpeech and ICSLP in 2000)","acronym":"Interspeech","rank":"A"},
{"name":"Knowledge capture","acronym":"K-CAP","rank":"A"},
{"name":"Logic Programming and Automated Reasoning","acronym":"LPAR","rank":"A"},
{"name":"Logics in Artificial Intelligence, European Conference","acronym":"JELIA","rank":"A"},
{"name":"Measurement and Modeling of Computer Systems","acronym":"SIGMETRICS","rank":"A*"},
{"name":"Medical Image Computing and Computer-Assisted Intervention","acronym":"MICCAI","rank":"A"},
{"name":"National Conference of the American Association for Artificial Intelligence","acronym":"AAAI","rank":"A*"},
{"name":"Network and Operating System Support for Digital Audio and Video","acronym":"NOSSDAV","rank":"A"},
{"name":"North American Association for Computational Linguistics","acronym":"NAACL","rank":"A"},
{"name":"Pacific Conference on Computer Graphics and Applications","acronym":"PG","rank":"A"},
{"name":"Pacific-Asia Conference on Knowledge Discovery and Data Mining","acronym":"PAKDD","rank":"A"},
{"name":"Parallel Problem Solving from Nature","acronym":"PPSN","rank":"A"},
{"name":"Principles and Practice of Parallel Programming","acronym":"PPoPP","rank":"A"},
{"name":"Real Time Systems Symposium","acronym":"RTSS","rank":"A*"},
{"name":"SIAM International Conference on Data Mining","acronym":"SDM","rank":"A"},
{"name":"Static Analysis Symposium","acronym":"SAS","rank":"A"},
{"name":"Structural and Syntactical Pattern Recognition","acronym":"SSPR","rank":"A"},
{"name":"Symposium Model Analysis and Simulation of Computer and Telecommunications Systems","acronym":"MASCOTS","rank":"A"},
{"name":"Symposium on High Performance Chips ","acronym":"HOTCHIPS (HCS) ","rank":"A"},
{"name":"Symposium on Parallelism in Algorithms and Architectures","acronym":"SPAA","rank":"A"},
{"name":"Symposium on Reliable Distributed Systems","acronym":"SRDS","rank":"A"},
{"name":"Tangible, Embedded, and Embodied Interaction","acronym":"TEI","rank":"A"},
{"name":"The International Symposium on Research in Attacks, Intrusions and Defenses (was International Symposium on Recent Advances in Intrusion Detection)","acronym":"RAID","rank":"A"},
{"name":"Theoretical Aspects of Rationality and Knowledge","acronym":"TARK","rank":"A"},
{"name":"Theory of Cryptography Conference","acronym":"TCC","rank":"A"},
{"name":"Tools and Algorithms for Construction and Analysis of Systems","acronym":"TACAS","rank":"A"},
{"name":"Unix Symposium on Internet Technologies","acronym":"USITS","rank":"A"},
{"name":"Usenix Annual Technical Conference","acronym":"USENIX","rank":"A"},
{"name":"Usenix Network and Distributed System Security Symposium","acronym":"NDSS","rank":"A*"},
{"name":"Usenix Security Symposium","acronym":"USENIX-Security","rank":"A*"},
{"name":"Usenix Symposium on Operating Systems Design and Implementation","acronym":"OSDI","rank":"A*"},
{"name":"USENIX Workshop on Hot Topics in Operating Systems","acronym":"HotOS","rank":"A"},
{"name":"Workshop on Algorithm Engineering and Experiments","acronym":"ALENEX","rank":"A"},
{"name":"Workshop on Cryptographic Hardware and Embedded Systems","acronym":"CHES","rank":"A"},
{"name":"ACM Computing Surveys","acronym":"None","rank":"A*"},
{"name":"ACM Transactions on Algorithms","acronym":"None","rank":"A"},
{"name":"ACM Transactions on Computational Logic","acronym":"None","rank":"A"},
{"name":"ACM Transactions on Computer - Human Interaction","acronym":"None","rank":"A*"},
{"name":"ACM Transactions on Computer Systems","acronym":"None","rank":"A*"},
{"name":"ACM Transactions on Database Systems","acronym":"None","rank":"A*"},
{"name":"ACM Transactions on Graphics","acronym":"None","rank":"A*"},
{"name":"ACM Transactions on Information Systems","acronym":"None","rank":"A"},
{"name":"ACM Transactions on Mathematical Software","acronym":"None","rank":"A*"},
{"name":"ACM Transactions on Privacy and Security (was ACM Transactions on Information and System Security, TISSEC pre 2018)","acronym":"None","rank":"A"},
{"name":"ACM Transactions on Programming Languages and Systems","acronym":"None","rank":"A*"},
{"name":"ACM Transactions on Software Engineering and Methodology","acronym":"None","rank":"A*"},
{"name":"Algorithmica: an international journal in computer science","acronym":"None","rank":"A*"},
{"name":"Annual Review of Information Science and Technology","acronym":"None","rank":"A*"},
{"name":"Artificial Intelligence","acronym":"None","rank":"A*"},
{"name":"Artificial Intelligence in Medicine","acronym":"None","rank":"A"},
{"name":"Autonomous Agents and Multi-Agent Systems","acronym":"None","rank":"A"},
{"name":"BMC Bioinformatics","acronym":"None","rank":"A"},
{"name":"Cognitive Science","acronym":"None","rank":"A*"},
{"name":"Combinatorica: an international journal on combinatorics and the theory of computing","acronym":"None","rank":"A"},
{"name":"Combinatorics, Probability and Computing","acronym":"None","rank":"A"},
{"name":"Computational Complexity","acronym":"None","rank":"A"},
{"name":"Computational Linguistics","acronym":"None","rank":"A*"},
{"name":"Computer Networks","acronym":"None","rank":"A"},
{"name":"Computer Physics Communications","acronym":"None","rank":"A"},
{"name":"Computer Speech and Language","acronym":"None","rank":"A"},
{"name":"Computer Vision and Image Understanding","acronym":"None","rank":"A"},
{"name":"Constraints","acronym":"None","rank":"A"},
{"name":"Data Mining and Knowledge Discovery","acronym":"None","rank":"A"},
{"name":"Distributed Computing","acronym":"None","rank":"A"},
{"name":"Electronic Markets","acronym":"None","rank":"A"},
{"name":"Empirical Software Engineering: an international journal","acronym":"None","rank":"A"},
{"name":"European Journal of Operational Research","acronym":"None","rank":"A"},
{"name":"Evolutionary Computation","acronym":"None","rank":"A"},
{"name":"Formal Methods in System Design","acronym":"None","rank":"A"},
{"name":"Foundations of Computational Mathematics","acronym":"None","rank":"A"},
{"name":"Future Generation Computer Systems: the international journal of grid computing: theory, methods and applications","acronym":"None","rank":"A"},
{"name":"Fuzzy Sets and Systems","acronym":"None","rank":"A"},
{"name":"Human-Computer Interaction","acronym":"None","rank":"A"},
{"name":"IEEE ACM Transactions on Networking","acronym":"None","rank":"A*"},
{"name":"IEEE Intelligent Systems","acronym":"None","rank":"A"},
{"name":"IEEE Journal of Biomedical and Health Informatics (was IEEE Transactions on Information Technology in Biomedicine)","acronym":"None","rank":"A*"},
{"name":"IEEE Pervasive Computing","acronym":"None","rank":"A"},
{"name":"IEEE Transactions on Computers","acronym":"None","rank":"A*"},
{"name":"IEEE Transactions on Dependable and Secure Computing","acronym":"None","rank":"A"},
{"name":"IEEE Transactions on Evolutionary Computation","acronym":"None","rank":"A*"},
{"name":"IEEE Transactions on Fuzzy Systems","acronym":"None","rank":"A*"},
{"name":"IEEE Transactions on Image Processing","acronym":"None","rank":"A*"},
{"name":"IEEE Transactions on Information Forensics and Security","acronym":"None","rank":"A"},
{"name":"IEEE Transactions on Information Theory","acronym":"None","rank":"A*"},
{"name":"IEEE Transactions on Knowledge and Data Engineering","acronym":"None","rank":"A*"},
{"name":"IEEE Transactions on Medical Imaging","acronym":"None","rank":"A*"},
{"name":"IEEE Transactions on Mobile Computing","acronym":"None","rank":"A*"},
{"name":"IEEE Transactions on Multimedia","acronym":"None","rank":"A*"},
{"name":"IEEE Transactions on Neural Networks and Learning Systems (was IEEE Transactions on Neural Networks)","acronym":"None","rank":"A*"},
{"name":"IEEE Transactions on Parallel and Distributed Systems","acronym":"None","rank":"A*"},
{"name":"IEEE Transactions on Pattern Analysis and Machine Intelligence","acronym":"None","rank":"A*"},
{"name":"IEEE Transactions on Reliability","acronym":"None","rank":"A"},
{"name":"IEEE Transactions on Robotics","acronym":"None","rank":"A*"},
{"name":"IEEE Transactions on Services Computing","acronym":"None","rank":"A*"},
{"name":"IEEE Transactions on Software Engineering","acronym":"None","rank":"A*"},
{"name":"IEEE Transactions on Systems, Man and Cybernetics, Part B: Cybernetics","acronym":"None","rank":"A"},
{"name":"IEEE Transactions on Visualization and Computer Graphics","acronym":"None","rank":"A"},
{"name":"Information and Software Technology","acronym":"None","rank":"A"},
{"name":"Information Processing and Management","acronym":"None","rank":"A"},
{"name":"Information Sciences","acronym":"None","rank":"A"},
{"name":"Information Systems","acronym":"None","rank":"A*"},
{"name":"Informs Journal on Computing","acronym":"None","rank":"A"},
{"name":"International Journal of Computer Vision","acronym":"None","rank":"A*"},
{"name":"International Journal of Electronic Commerce","acronym":"None","rank":"A"},
{"name":"International Journal of Geographical Information Science","acronym":"None","rank":"A"},
{"name":"International Journal of Human-Computer Studies","acronym":"None","rank":"A"},
{"name":"International Journal of Medical Informatics","acronym":"None","rank":"A"},
{"name":"International Journal of Robotics Research","acronym":"None","rank":"A*"},
{"name":"Journal of Artificial Intelligence Research","acronym":"None","rank":"A"},
{"name":"Journal of Automated Reasoning","acronym":"None","rank":"A"},
{"name":"Journal of Computer and System Sciences","acronym":"None","rank":"A*"},
{"name":"Journal of Cryptology","acronym":"None","rank":"A*"},
{"name":"Journal of Experimental Algorithmics","acronym":"None","rank":"A"},
{"name":"Journal of Field Robotics","acronym":"None","rank":"A"},
{"name":"Journal of Functional Programming","acronym":"None","rank":"A"},
{"name":"Journal of Graph Theory","acronym":"None","rank":"A"},
{"name":"Journal of Information Technology","acronym":"None","rank":"A*"},
{"name":"Journal of Informetrics","acronym":"None","rank":"A"},
{"name":"Journal of Machine Learning Research","acronym":"None","rank":"A*"},
{"name":"Journal of Network and Computer Applications","acronym":"None","rank":"A"},
{"name":"Journal of Parallel and Distributed Computing","acronym":"None","rank":"A"},
{"name":"Journal of Systems and Software","acronym":"None","rank":"A"},
{"name":"Journal of the ACM","acronym":"None","rank":"A*"},
{"name":"Journal of the American Medical Informatics Association","acronym":"None","rank":"A"},
{"name":"Journal of the Association for Information Science and Technology (was Journal of the American Society for Information Science and Technology)","acronym":"None","rank":"A*"},
{"name":"Logical Methods in Computer Science","acronym":"None","rank":"A"},
{"name":"Machine Learning","acronym":"None","rank":"A"},
{"name":"Mathematics of Operations Research","acronym":"None","rank":"A"},
{"name":"MIS Quarterly","acronym":"None","rank":"A*"},
{"name":"Natural Language Engineering","acronym":"None","rank":"A"},
{"name":"Neural Networks","acronym":"None","rank":"A"},
{"name":"Operations Research","acronym":"None","rank":"A*"},
{"name":"Pattern Recognition","acronym":"None","rank":"A*"},
{"name":"Random Structures and Algorithms","acronym":"None","rank":"A"},
{"name":"Robotics and Computer Integrated Manufacturing","acronym":"None","rank":"A"},
{"name":"Science of Computer Programming","acronym":"None","rank":"A"},
{"name":"SIAM Journal on Computing","acronym":"None","rank":"A*"},
{"name":"SIAM Journal on Discrete Mathematics","acronym":"None","rank":"A"},
{"name":"SIAM Journal on Scientific Computing","acronym":"None","rank":"A"},
{"name":"Statistics and Computing","acronym":"None","rank":"A"},
{"name":"The VLDB Journal","acronym":"None","rank":"A*"},
{"name":"Theoretical Computer Science","acronym":"None","rank":"A"},
{"name":"Theory and Practice of Logic Programming","acronym":"None","rank":"A"},
{"name":"Theory of Computing","acronym":"None","rank":"A"},
{"name":"User Modeling and User Adapted Interaction","acronym":"None","rank":"A"},
{"name":"World Wide Web","acronym":"None","rank":"A"}]
